<?xml version="1.0" standalone="no"?>
<!DOCTYPE svg PUBLIC "-//W3C//DTD SVG 1.1//EN" "http://www.w3.org/Graphics/SVG/1.1/DTD/svg11.dtd">
<svg xmlns="http://www.w3.org/2000/svg">
<metadata>Generated by Fontastic.me</metadata>
<defs>
<font id="custom-icons" horiz-adv-x="512">
<font-face font-family="custom-icons" units-per-em="512" ascent="480" descent="-32"/>
<missing-glyph horiz-adv-x="512" />

<glyph glyph-name="twitter" unicode="&#57344;" d="M481 395c-13-18-28-34-46-47 0-3 0-7 0-12 0-25-3-50-11-74-7-25-18-49-33-71-14-23-32-43-52-61-21-17-45-31-74-41-29-11-60-16-92-16-52 0-99 14-142 42 7-1 14-2 22-2 43 0 81 14 115 40-20 0-38 6-54 18-16 12-27 27-33 46 7-1 13-2 18-2 8 0 16 1 24 4-21 4-39 15-53 31-14 17-21 37-21 59l0 1c13-7 27-11 42-11-13 8-23 19-30 32-8 14-11 29-11 44 0 17 4 33 12 47 23-28 51-51 84-68 33-17 69-27 107-29-2 8-3 15-3 22 0 25 9 47 27 65 18 18 40 27 66 27 26 0 49-10 67-29 21 4 40 11 59 22-7-22-21-39-41-51 18 2 35 7 53 14z"/>
<glyph glyph-name="facebook" unicode="&#57345;" d="M292 353l74 0-9-81-65 0 0-235-97 0 0 235-49 0 0 81 49 0 0 49c0 35 8 61 24 79 17 18 44 26 81 26l65 0 0-81-40 0c-8 0-14 0-18-2-5-1-8-3-10-6-2-4-3-7-4-10 0-3-1-8-1-14z"/>
<glyph glyph-name="youtube" unicode="&#57346;" d="M314 157l0-61c0-12-4-19-11-19-5 0-9 2-13 6l0 86c4 5 8 7 13 7 7 0 11-7 11-19z m97-1l0-13-26 0 0 13c0 13 4 20 13 20 8 0 13-7 13-20z m-276 63l30 0 0 26-89 0 0-26 30 0 0-163 29 0z m82-163l25 0 0 141-25 0 0-108c-6-8-11-12-16-12-4 0-6 2-6 6-1 1-1 4-1 10l0 104-25 0 0-112c0-9 1-16 2-20 2-7 8-11 17-11 9 0 19 6 29 17z m122 42l0 57c0 13 0 23-2 28-3 11-10 16-20 16-10 0-19-5-27-16l0 62-25 0 0-189 25 0 0 14c9-11 17-16 27-16 10 0 17 5 20 16 2 5 2 14 2 28z m97 3l0 4-26 0c0-10 0-16-1-18-1-6-5-10-11-10-9 0-13 7-13 20l0 25 51 0 0 29c0 15-3 26-8 33-7 10-17 15-30 15-13 0-23-5-31-15-5-7-8-18-8-33l0-49c0-15 3-26 9-33 7-10 17-15 31-15 13 0 24 5 30 15 4 5 6 10 6 16 1 1 1 7 1 16z m-174 261l0 60c0 13-4 20-12 20-8 0-12-7-12-20l0-60c0-13 4-20 12-20 8 0 12 7 12 20z m206-215c0-44-3-77-8-100-2-11-8-20-16-28-9-7-18-12-29-13-35-4-88-6-159-6-71 0-124 2-159 6-11 1-20 6-29 13-8 8-14 17-16 28-5 22-8 55-8 100 0 45 3 78 8 100 2 12 8 21 16 29 9 7 18 12 30 13 35 4 87 6 158 6 71 0 124-2 159-6 11-1 20-6 29-13 8-8 14-17 16-29 5-21 8-54 8-100z m-285 365l29 0-35-114 0-77-28 0 0 77c-3 14-9 34-18 61-7 19-13 37-18 53l30 0 20-75z m105-95l0-50c0-16-2-27-8-34-7-10-17-14-30-14-13 0-23 4-30 14-5 7-8 19-8 34l0 50c0 15 3 26 8 33 7 10 17 15 30 15 13 0 23-5 30-15 6-7 8-18 8-33z m96 46l0-142-26 0 0 15c-10-12-20-17-29-17-9 0-15 3-17 10-2 5-3 12-3 22l0 112 26 0 0-105c0-6 1-9 1-10 0-4 2-6 6-6 5 0 10 4 16 12l0 109z"/>
<glyph glyph-name="instagram" unicode="&#57347;" d="M426 105l0 185-39 0c4-12 6-25 6-38 0-24-6-46-18-66-13-20-29-36-50-48-21-12-44-18-69-18-37 0-69 13-96 39-27 26-40 57-40 93 0 13 2 26 6 38l-41 0 0-185c0-5 2-10 5-13 4-3 8-5 13-5l305 0c5 0 9 2 13 5 3 3 5 8 5 13z m-81 152c0 23-9 44-26 60-18 17-38 25-63 25-24 0-45-8-62-25-17-16-26-37-26-60 0-24 9-44 26-61 17-16 38-25 62-25 25 0 45 9 63 25 17 17 26 37 26 61z m81 103l0 47c0 5-2 10-6 14-4 4-8 6-14 6l-50 0c-5 0-10-2-14-6-4-4-5-9-5-14l0-47c0-6 1-10 5-14 4-4 9-6 14-6l50 0c6 0 10 2 14 6 4 4 6 8 6 14z m49 59l0-326c0-16-5-29-16-40-11-11-24-16-40-16l-326 0c-16 0-29 5-40 16-11 11-16 24-16 40l0 326c0 16 5 29 16 40 11 11 24 16 40 16l326 0c16 0 29-5 40-16 11-11 16-24 16-40z"/>
<glyph glyph-name="command" unicode="&#57348;" d="M402 161c0 1 0 1-1 1l-62 9c-10 7-11 23-11 40 19 21 32 49 32 81l0 3c15 13 24 33 24 53l0 48c0 40-32 72-72 72l-104 0c-15 0-28-11-31-25-27-3-49-26-49-55l0-40c0-20 9-40 24-53l0-3c0-32 13-60 32-81 0-17-1-33-11-40l-62-9c-1 0-1 0-1-1-14-3-26-12-34-24-8-11-12-25-12-38l0-31c0-13 12-24 26-24l332 0c14 0 26 11 26 24l0 31c0 13-4 27-12 38-8 12-20 21-34 24z m-146 19c21 0 40 7 57 19 1-14 4-29 15-38-6-31-36-54-72-54-35 0-65 23-71 54 11 9 14 24 14 38 17-12 36-19 57-19z m-89 117c0 1 0 1 0 2l0 41c0 14 11 25 25 25l136 0c4 0 8 3 8 7 0 4-4 8-8 8l-136 0c-22 0-40-18-40-40l0-22c-6 9-9 19-9 30l0 40c0 23 19 41 41 41 4 0 7 3 7 7 0 9 8 17 17 17l104 0c31 0 57-25 57-57l0-48c0-11-3-21-9-30l0 30c0 4-4 8-8 8-4 0-7-4-7-8l0-56c0-53-40-97-89-97-49 0-89 44-89 97z m266-229c0-5-5-9-11-9l-332 0c-6 0-11 4-11 9l0 31c0 19 12 41 34 48l57 8c9-36 44-63 86-63 42 0 77 27 86 63l57-8c22-7 34-29 34-48z"/>
<glyph glyph-name="play-button" unicode="&#57349;" d="M389 263l-188 128c-3 2-6 2-9 1-3-2-4-5-4-8l0-256c0-3 1-6 4-8 2 0 3-1 4-1 2 0 4 1 5 2l188 128c2 2 4 4 4 7 0 3-2 5-4 7z m-184-119l0 224 164-112z m51 368c-141 0-256-115-256-256 0-141 115-256 256-256 141 0 256 115 256 256 0 141-115 256-256 256z m0-495c-132 0-239 107-239 239 0 132 107 239 239 239 132 0 239-107 239-239 0-132-107-239-239-239z"/>
<glyph glyph-name="next" unicode="&#57350;" d="M223 114l137 136 0 12-137 136-12-12 130-130-130-130z m33-114c0 0 0 0 0 0 68 0 133 27 181 75 48 48 75 113 75 181 0 68-27 133-75 181-48 48-113 75-181 75 0 0 0 0 0 0-68 0-133-27-181-75-48-48-75-113-75-181 0-68 27-133 75-181 48-48 113-75 181-75z m-170 426c46 45 106 70 170 70 0 0 0 0 0 0 64 0 124-25 170-70 45-46 70-106 70-170 0-64-25-124-70-170-46-45-106-70-170-70l0 0c0 0 0 0 0 0-64 0-124 25-170 70-45 46-70 106-70 170 0 64 25 124 70 170z"/>
<glyph glyph-name="back" unicode="&#57351;" d="M302 126l-131 130 131 130-13 12-137-136 0-12 137-136z m-46-126c0 0 0 0 0 0 68 0 133 27 181 75 48 48 75 113 75 181 0 68-27 133-75 181-48 48-113 75-181 75 0 0 0 0 0 0-68 0-133-27-181-75-48-48-75-113-75-181 0-68 27-133 75-181 48-48 113-75 181-75z m-170 426c46 45 106 70 170 70 0 0 0 0 0 0 64 0 124-25 170-70 45-46 70-106 70-170 0-64-25-124-70-170-46-45-106-70-170-70l0 0c0 0 0 0 0 0-64 0-124 25-170 70-45 46-70 106-70 170 0 64 25 124 70 170z"/>
</font></defs></svg>
